#i	ll	stddev	hm	stddev
1	5717	397	1177	72
3	30340	1159	3762	8
5	82297	742	6750	20
7	136167	765	10886	29
9	190377	1373	15906	626
11	244315	1320	20361	164
13	298647	2505	24723	300
15	352178	1120	28708	96
17	408066	4321	33276	546
19	462179	1219	37408	32
21	517859	3401	42021	1583
23	572385	1322	45561	56
25	627698	1286	49776	61
27	683319	2302	54161	973
29	739808	4785	58445	755
31	795812	4892	62669	841
